_IceTransSocketUNIXConnect: Cannot connect to non-local host ubuntu1804
_IceTransSocketUNIXConnect: Cannot connect to non-local host ubuntu1804
Qt: Session management error: Could not open network socket
